{
  "artists" : {
    "href" : "https://api.spotify.com/v1/search?query=Muse&offset=5&limit=1&type=artist&market=US",
    "items" : [ {
      "external_urls" : {
        "spotify" : "https://open.spotify.com/artist/3waFze2hMUecCLD0BJ4rvU"
      },
      "followers" : {
        "href" : null,
        "total" : 2749
      },
      "genres" : [ "dark wave", "ethereal wave" ],
      "href" : "https://api.spotify.com/v1/artists/3waFze2hMUecCLD0BJ4rvU",
      "id" : "3waFze2hMUecCLD0BJ4rvU",
      "images" : [ {
        "height" : 372,
        "url" : "https://i.scdn.co/image/626be859c3f3e64df9c4032a2f3b4bfacd9875d2",
        "width" : 504
      }, {
        "height" : 148,
        "url" : "https://i.scdn.co/image/f0050f3562fd5f732d6362ca4bb6f6d253a4f9f4",
        "width" : 200
      }, {
        "height" : 47,
        "url" : "https://i.scdn.co/image/ea442f0ccd8587b1c0ae29735218c1505e733b11",
        "width" : 64
      } ],
      "name" : "Faith And The Muse",
      "popularity" : 23,
      "type" : "artist",
      "uri" : "spotify:artist:3waFze2hMUecCLD0BJ4rvU"
    } ],
    "limit" : 1,
    "next" : "https://api.spotify.com/v1/search?query=Muse&offset=6&limit=1&type=artist&market=US",
    "offset" : 5,
    "previous" : "https://api.spotify.com/v1/search?query=Muse&offset=4&limit=1&type=artist&market=US",
    "total" : 109
  },
  "tracks" : {
    "href" : "https://api.spotify.com/v1/search?query=Muse&offset=5&limit=1&type=track&market=US",
    "items" : [ {
      "album" : {
        "album_type" : "album",
        "available_markets" : [ "AD", "AR", "AT", "AU", "BE", "BG", "BO", "BR", "CA", "CH", "CL", "CO", "CR", "CY", "CZ", "DE", "DK", "DO", "EC", "EE", "ES", "FI", "FR", "GB", "GR", "GT", "HK", "HN", "HU", "IE", "IS", "IT", "LI", "LT", "LU", "LV", "MC", "MT", "MX", "MY", "NI", "NL", "NO", "NZ", "PA", "PE", "PH", "PL", "PT", "PY", "RO", "SE", "SG", "SI", "SK", "SV", "TR", "TW", "US", "UY" ],
        "external_urls" : {
          "spotify" : "https://open.spotify.com/album/0lw68yx3MhKflWFqCsGkIs"
        },
        "href" : "https://api.spotify.com/v1/albums/0lw68yx3MhKflWFqCsGkIs",
        "id" : "0lw68yx3MhKflWFqCsGkIs",
        "images" : [ {
          "height" : 640,
          "url" : "https://i.scdn.co/image/cc938203606c1673a4e32334967f3621ed6769fe",
          "width" : 640
        }, {
          "height" : 300,
          "url" : "https://i.scdn.co/image/acf6bd01fe17c53a7ef0b92fe52d3590d57df13e",
          "width" : 300
        }, {
          "height" : 64,
          "url" : "https://i.scdn.co/image/6c751d61a730ab14dca55b1c7d3ce1f7f838aa23",
          "width" : 64
        } ],
        "name" : "Black Holes And Revelations",
        "type" : "album",
        "uri" : "spotify:album:0lw68yx3MhKflWFqCsGkIs"
      },
      "artists" : [ {
        "external_urls" : {
          "spotify" : "https://open.spotify.com/artist/12Chz98pHFMPJEknJQMWvI"
        },
        "href" : "https://api.spotify.com/v1/artists/12Chz98pHFMPJEknJQMWvI",
        "id" : "12Chz98pHFMPJEknJQMWvI",
        "name" : "Muse",
        "type" : "artist",
        "uri" : "spotify:artist:12Chz98pHFMPJEknJQMWvI"
      } ],
      "available_markets" : [ "AD", "AR", "AT", "AU", "BE", "BG", "BO", "BR", "CA", "CH", "CL", "CO", "CR", "CY", "CZ", "DE", "DK", "DO", "EC", "EE", "ES", "FI", "FR", "GB", "GR", "GT", "HK", "HN", "HU", "IE", "IS", "IT", "LI", "LT", "LU", "LV", "MC", "MT", "MX", "MY", "NI", "NL", "NO", "NZ", "PA", "PE", "PH", "PL", "PT", "PY", "RO", "SE", "SG", "SI", "SK", "SV", "TR", "TW", "US", "UY" ],
      "disc_number" : 1,
      "duration_ms" : 240213,
      "explicit" : false,
      "external_ids" : {
        "isrc" : "GBAHT0500592"
      },
      "external_urls" : {
        "spotify" : "https://open.spotify.com/track/3skn2lauGk7Dx6bVIt5DVj"
      },
      "href" : "https://api.spotify.com/v1/tracks/3skn2lauGk7Dx6bVIt5DVj",
      "id" : "3skn2lauGk7Dx6bVIt5DVj",
      "name" : "Starlight",
      "popularity" : 72,
      "preview_url" : "https://p.scdn.co/mp3-preview/0e946239cd2f8264b27f2ffb1e5ff0718290f679",
      "track_number" : 2,
      "type" : "track",
      "uri" : "spotify:track:3skn2lauGk7Dx6bVIt5DVj"
    } ],
    "limit" : 1,
    "next" : "https://api.spotify.com/v1/search?query=Muse&offset=6&limit=1&type=track&market=US",
    "offset" : 5,
    "previous" : "https://api.spotify.com/v1/search?query=Muse&offset=4&limit=1&type=track&market=US",
    "total" : 9688
  }
}
